{
  "name": "robotta",
  "version": "1.0.0",
  "gitUrl": "gitlab.com/aleixrocks/robotta",
  "authors": [ "RPTools Team" ],
  "license": "GPL 3.0",
  "namespace": "com.gitlab.aleixrocks.robotta",
  "description": "Robotta Add-On",
  "shortDescription": "Robotta Add-on short",
  "allowsUriAccess": true,
  "readMeFile": "README.md",
  "licenseFile": "LICENSE"
}
